\relax 
\providecommand\hyper@newdestlabel[2]{}
\providecommand*\new@tpo@label[2]{}
\catcode `"\active 
\catcode `<\active 
\catcode `>\active 
\@nameuse{es@quoting}
\AC@reset@newl@bel
\providecommand\HyperFirstAtBeginDocument{\AtBeginDocument}
\HyperFirstAtBeginDocument{\ifx\hyper@anchor\@undefined
\global\let\oldcontentsline\contentsline
\gdef\contentsline#1#2#3#4{\oldcontentsline{#1}{#2}{#3}}
\global\let\oldnewlabel\newlabel
\gdef\newlabel#1#2{\newlabelxx{#1}#2}
\gdef\newlabelxx#1#2#3#4#5#6{\oldnewlabel{#1}{{#2}{#3}}}
\AtEndDocument{\ifx\hyper@anchor\@undefined
\let\contentsline\oldcontentsline
\let\newlabel\oldnewlabel
\fi}
\fi}
\global\let\hyper@last\relax 
\gdef\HyperFirstAtBeginDocument#1{#1}
\providecommand\HyField@AuxAddToFields[1]{}
\providecommand\HyField@AuxAddToCoFields[2]{}
\providecommand\@newglossary[4]{}
\@newglossary{main}{glg}{gls}{glo}
\@newglossary{acronym}{alg}{acr}{acn}
\select@language{spanish}
\@writefile{toc}{\select@language{spanish}}
\@writefile{lof}{\select@language{spanish}}
\@writefile{lot}{\select@language{spanish}}
\citation{UNE50136:97}
\@writefile{toc}{\contentsline {chapter}{\numberline {1}Introducci\IeC {\'o}n}{1}{chapter.1}}
\@writefile{lof}{\addvspace {10\p@ }}
\@writefile{lot}{\addvspace {10\p@ }}
\@writefile{lol}{\addvspace {10\p@ }}
\@writefile{toc}{\contentsline {section}{\numberline {1.1}\IeC {\textexclamdown }Importante!, leer primero}{1}{section.1.1}}
\AC@undonewlabel{acro:TFG}
\newlabel{acro:TFG}{{1.1}{1}{¡Importante!, leer primero}{section*.8}{}}
\acronymused{TFG}
\acronymused{TFG}
\AC@undonewlabel{acro:TFM}
\newlabel{acro:TFM}{{1.1}{1}{¡Importante!, leer primero}{section*.9}{}}
\acronymused{TFM}
\acronymused{TFG}
\acronymused{TFG}
\acronymused{TFG}
\@writefile{toc}{\contentsline {section}{\numberline {1.2}Estructura de un \ac {TFG}}{1}{section.1.2}}
\acronymused{TFG}
\acronymused{TFM}
\acronymused{TFG}
\acronymused{TFM}
\acronymused{TFG}
\acronymused{TFM}
\acronymused{TFG}
\acronymused{TFG}
\acronymused{TFM}
\AC@undonewlabel{acro:APA}
\newlabel{acro:APA}{{1.2}{2}{Estructura de un \ac {TFG}}{section*.10}{}}
\acronymused{APA}
\acronymused{APA}
\citation{BOE_IM_UA}
\@writefile{toc}{\contentsline {chapter}{\numberline {2}Marco Te\IeC {\'o}rico}{5}{chapter.2}}
\@writefile{lof}{\addvspace {10\p@ }}
\@writefile{lot}{\addvspace {10\p@ }}
\@writefile{lol}{\addvspace {10\p@ }}
\newlabel{marcoteorico}{{2}{5}{Marco Teórico}{chapter.2}{}}
\@writefile{toc}{\contentsline {section}{\numberline {2.1}Listas}{5}{section.2.1}}
\@writefile{toc}{\contentsline {section}{\numberline {2.2}Tablas}{6}{section.2.2}}
\@writefile{toc}{\contentsline {subsection}{\numberline {2.2.1}Inserci\IeC {\'o}n de tablas}{6}{subsection.2.2.1}}
\@writefile{lot}{\contentsline {table}{\numberline {\relax 2.1}{\ignorespaces Ejemplo de tabla.}}{6}{table.2.1}}
\newlabel{tabladeejemplo}{{\relax 2.1}{6}{Ejemplo de tabla}{table.2.1}{}}
\@writefile{lot}{\contentsline {table}{\numberline {\relax 2.2}{\ignorespaces Par\IeC {\'a}metros optativos de los entornos flotantes}}{6}{table.2.2}}
\newlabel{tabla_parametros}{{\relax 2.2}{6}{Parámetros optativos de los entornos flotantes}{table.2.2}{}}
