\relax 
\providecommand\hyper@newdestlabel[2]{}
\providecommand*\new@tpo@label[2]{}
\catcode `"\active 
\catcode `<\active 
\catcode `>\active 
\@nameuse{es@quoting}
\AC@reset@newl@bel
\providecommand\HyperFirstAtBeginDocument{\AtBeginDocument}
\HyperFirstAtBeginDocument{\ifx\hyper@anchor\@undefined
\global\let\oldcontentsline\contentsline
\gdef\contentsline#1#2#3#4{\oldcontentsline{#1}{#2}{#3}}
\global\let\oldnewlabel\newlabel
\gdef\newlabel#1#2{\newlabelxx{#1}#2}
\gdef\newlabelxx#1#2#3#4#5#6{\oldnewlabel{#1}{{#2}{#3}}}
\AtEndDocument{\ifx\hyper@anchor\@undefined
\let\contentsline\oldcontentsline
\let\newlabel\oldnewlabel
\fi}
\fi}
\global\let\hyper@last\relax 
\gdef\HyperFirstAtBeginDocument#1{#1}
\providecommand\HyField@AuxAddToFields[1]{}
\providecommand\HyField@AuxAddToCoFields[2]{}
\providecommand\@newglossary[4]{}
\@newglossary{main}{glg}{gls}{glo}
\@newglossary{acronym}{alg}{acr}{acn}
\select@language{spanish}
\@writefile{toc}{\select@language{spanish}}
\@writefile{lof}{\select@language{spanish}}
\@writefile{lot}{\select@language{spanish}}
\acronymused{TFG}
\acronymused{ETL}
\acronymused{DB}
\acronymused{DB}
\AC@undonewlabel{acro:DB}
\newlabel{acro:DB}{{}{\es@scroman  {xi}}{\list@fname }{section*.5}{}}
\acronymused{DB}
\@writefile{toc}{\contentsline {chapter}{\numberline {1}Introducci\IeC {\'o}n}{1}{chapter.1}}
\@writefile{lof}{\addvspace {10\p@ }}
\@writefile{lot}{\addvspace {10\p@ }}
\@writefile{lol}{\addvspace {10\p@ }}
\AC@undonewlabel{acro:TFG}
\newlabel{acro:TFG}{{1}{1}{Introducción}{section*.7}{}}
\acronymused{TFG}
\acronymused{TFG}
\acronymused{TFG}
\AC@undonewlabel{acro:ETL}
\newlabel{acro:ETL}{{1}{1}{Introducción}{section*.8}{}}
\acronymused{ETL}
\acronymused{DB}
\citation{unef_ree}
\citation{ree_esee}
\@writefile{toc}{\contentsline {chapter}{\numberline {2}Marco Te\IeC {\'o}rico}{3}{chapter.2}}
\@writefile{lof}{\addvspace {10\p@ }}
\@writefile{lot}{\addvspace {10\p@ }}
\@writefile{lol}{\addvspace {10\p@ }}
\newlabel{marcoteorico}{{2}{3}{Marco Teórico}{chapter.2}{}}
\acronymused{TFG}
\@writefile{toc}{\contentsline {section}{\numberline {2.1}Energ\IeC {\'\i }a solar fotovoltaica en Espa\IeC {\~n}a}{3}{section.2.1}}
\AC@undonewlabel{acro:UNEF}
\newlabel{acro:UNEF}{{2.1}{3}{Energía solar fotovoltaica en España}{section*.9}{}}
\acronymused{UNEF}
\AC@undonewlabel{acro:REE}
\newlabel{acro:REE}{{2.1}{3}{Energía solar fotovoltaica en España}{section*.10}{}}
\acronymused{REE}
\@writefile{lot}{\contentsline {table}{\numberline {\relax 2.1}{\ignorespaces Cobertura de la demanda de electricidad por parte de las diferentes tecnolog\IeC {\'\i }as de generaci\IeC {\'o}n en 2017.}}{3}{table.2.1}}
\newlabel{tabladeejemplo}{{\relax 2.1}{3}{Cobertura de la demanda de electricidad por parte de las diferentes tecnologías de generación en 2017}{table.2.1}{}}
\@writefile{toc}{\contentsline {section}{\numberline {2.2}Web de datos solares}{4}{section.2.2}}
\AC@undonewlabel{acro:API}
\newlabel{acro:API}{{2.2}{4}{Web de datos solares}{section*.11}{}}
\acronymused{API}
\AC@undonewlabel{acro:DB}
\newlabel{acro:DB}{{2.2}{4}{Web de datos solares}{section*.12}{}}
\acronymused{DB}
\AC@undonewlabel{acro:URL}
\newlabel{acro:URL}{{2.2}{4}{Web de datos solares}{section*.13}{}}
\acronymused{URL}
\@writefile{toc}{\contentsline {section}{\numberline {2.3}Impulso de Open Data}{4}{section.2.3}}
\AC@undonewlabel{acro:RGPD}
\newlabel{acro:RGPD}{{2.3}{4}{Impulso de Open Data}{section*.14}{}}
\acronymused{RGPD}
\acronymused{TFG}
\acronymused{RGPD}
\@writefile{toc}{\contentsline {chapter}{\numberline {3}Objetivos}{5}{chapter.3}}
\@writefile{lof}{\addvspace {10\p@ }}
\@writefile{lot}{\addvspace {10\p@ }}
\@writefile{lol}{\addvspace {10\p@ }}
\newlabel{objetivos}{{3}{5}{Objetivos}{chapter.3}{}}
\@writefile{toc}{\contentsline {section}{\numberline {3.1}Objetivos Generales}{5}{section.3.1}}
\acronymused{ETL}
\AC@undonewlabel{acro:HTML}
\newlabel{acro:HTML}{{3.1}{5}{Objetivos Generales}{section*.15}{}}
\acronymused{HTML}
\acronymused{API}
\acronymused{DB}
\acronymused{DB}
\AC@undonewlabel{acro:NoSQL}
\newlabel{acro:NoSQL}{{3.1}{5}{Objetivos Generales}{section*.16}{}}
\acronymused{NoSQL}
\@writefile{toc}{\contentsline {section}{\numberline {3.2}Objetivos Espec\IeC {\'\i }ficos}{5}{section.3.2}}
\@writefile{toc}{\contentsline {subsection}{\numberline {3.2.1}Extracci\IeC {\'o}n de datos de paneles fotovoltaicos}{5}{subsection.3.2.1}}
\acronymused{HTML}
\@writefile{toc}{\contentsline {subsection}{\numberline {3.2.2}Tratamiento de datos en la aplicaci\IeC {\'o}n}{6}{subsection.3.2.2}}
\acronymused{DB}
\acronymused{DB}
\@writefile{toc}{\contentsline {subsection}{\numberline {3.2.3}Volcado a \acl {DB}}{6}{subsection.3.2.3}}
\acronymused{ETL}
\acronymused{DB}
\acronymused{DB}
\@writefile{toc}{\contentsline {chapter}{\numberline {4}Metodolog\IeC {\'\i }a}{7}{chapter.4}}
\@writefile{lof}{\addvspace {10\p@ }}
\@writefile{lot}{\addvspace {10\p@ }}
\@writefile{lol}{\addvspace {10\p@ }}
\newlabel{metodologia}{{4}{7}{Metodología}{chapter.4}{}}
\@writefile{toc}{\contentsline {section}{\numberline {4.1}Gesti\IeC {\'o}n de Proyecto}{7}{section.4.1}}
\@writefile{toc}{\contentsline {subsection}{\numberline {4.1.1}Trello}{7}{subsection.4.1.1}}
\@writefile{lof}{\contentsline {figure}{\numberline {\relax 4.1}{\ignorespaces Captura del tabl\IeC {\'o}n de Trello utilizado para el proyecto.}}{8}{figure.4.1}}
\newlabel{captura_board_trello}{{\relax 4.1}{8}{Captura del tablón de Trello utilizado para el proyecto}{figure.4.1}{}}
\@writefile{lof}{\contentsline {figure}{\numberline {\relax 4.2}{\ignorespaces Captura del detalle de una tarea en Trello.}}{9}{figure.4.2}}
\newlabel{captura_tarea_trello}{{\relax 4.2}{9}{Captura del detalle de una tarea en Trello}{figure.4.2}{}}
\@writefile{toc}{\contentsline {subsection}{\numberline {4.1.2}Git}{9}{subsection.4.1.2}}
\@writefile{lof}{\contentsline {figure}{\numberline {\relax 4.3}{\ignorespaces Logo de Trello.}}{10}{figure.4.3}}
\newlabel{logo_trello}{{\relax 4.3}{10}{Logo de Trello}{figure.4.3}{}}
\@writefile{lof}{\contentsline {figure}{\numberline {\relax 4.4}{\ignorespaces Logo de Git.}}{10}{figure.4.4}}
\newlabel{logo_git}{{\relax 4.4}{10}{Logo de Git}{figure.4.4}{}}
\@writefile{toc}{\contentsline {subsubsection}{\nonumberline Comandos principales}{10}{section*.17}}
\@writefile{toc}{\contentsline {subsection}{\numberline {4.1.3}Bitbucket}{11}{subsection.4.1.3}}
\@writefile{lof}{\contentsline {figure}{\numberline {\relax 4.5}{\ignorespaces Logo de Bitbucket.}}{12}{figure.4.5}}
\newlabel{logo_bitbucket}{{\relax 4.5}{12}{Logo de Bitbucket}{figure.4.5}{}}
\@writefile{toc}{\contentsline {subsection}{\numberline {4.1.4}Slack}{12}{subsection.4.1.4}}
\acronymused{TFG}
\acronymused{TFG}
\@writefile{toc}{\contentsline {subsection}{\numberline {4.1.5}\LaTeX  }{12}{subsection.4.1.5}}
\citation{w3_ws}
\@writefile{lof}{\contentsline {figure}{\numberline {\relax 4.6}{\ignorespaces Logo de Slack.}}{13}{figure.4.6}}
\newlabel{logo_slack}{{\relax 4.6}{13}{Logo de Slack}{figure.4.6}{}}
\@writefile{toc}{\contentsline {section}{\numberline {4.2}Tecnolog\IeC {\'\i }as empleadas}{13}{section.4.2}}
\@writefile{toc}{\contentsline {subsection}{\numberline {4.2.1}Servicios Web}{13}{subsection.4.2.1}}
\AC@undonewlabel{acro:W3C}
\newlabel{acro:W3C}{{4.2.1}{13}{Servicios Web}{section*.18}{}}
\acronymused{W3C}
\AC@undonewlabel{acro:URI}
\newlabel{acro:URI}{{4.2.1}{13}{Servicios Web}{section*.19}{}}
\acronymused{URI}
\AC@undonewlabel{acro:XML}
\newlabel{acro:XML}{{4.2.1}{13}{Servicios Web}{section*.20}{}}
\acronymused{XML}
\citation{oracle_j8}
\citation{spring_framework}
\@writefile{lof}{\contentsline {figure}{\numberline {\relax 4.7}{\ignorespaces Logo de Java.}}{14}{figure.4.7}}
\newlabel{logo_java}{{\relax 4.7}{14}{Logo de Java}{figure.4.7}{}}
\@writefile{toc}{\contentsline {subsection}{\numberline {4.2.2}Java}{14}{subsection.4.2.2}}
\acronymused{API}
\acronymused{API}
\@writefile{toc}{\contentsline {subsection}{\numberline {4.2.3}Ecosistema Spring}{14}{subsection.4.2.3}}
\citation{swagger}
\@writefile{lof}{\contentsline {figure}{\numberline {\relax 4.8}{\ignorespaces Logo de Spring.}}{15}{figure.4.8}}
\newlabel{logo_spring}{{\relax 4.8}{15}{Logo de Spring}{figure.4.8}{}}
\acronymused{DB}
\@writefile{toc}{\contentsline {subsection}{\numberline {4.2.4}Swagger}{15}{subsection.4.2.4}}
\acronymused{API}
\acronymused{API}
\@writefile{lof}{\contentsline {figure}{\numberline {\relax 4.9}{\ignorespaces Logo de Swagger.}}{16}{figure.4.9}}
\newlabel{logo_swagger}{{\relax 4.9}{16}{Logo de Swagger}{figure.4.9}{}}
\@writefile{lof}{\contentsline {figure}{\numberline {\relax 4.10}{\ignorespaces Logo de Maven.}}{16}{figure.4.10}}
\newlabel{logo_maven}{{\relax 4.10}{16}{Logo de Maven}{figure.4.10}{}}
\@writefile{toc}{\contentsline {subsection}{\numberline {4.2.5}Maven}{16}{subsection.4.2.5}}
\newlabel{maven}{{4.2.5}{16}{Maven}{subsection.4.2.5}{}}
\AC@undonewlabel{acro:POM}
\newlabel{acro:POM}{{4.2.5}{16}{Maven}{section*.21}{}}
\acronymused{POM}
\acronymused{XML}
\@writefile{toc}{\contentsline {subsection}{\numberline {4.2.6}Base de Datos}{16}{subsection.4.2.6}}
\@writefile{toc}{\contentsline {subsubsection}{\nonumberline MongoDB}{16}{section*.22}}
\acronymused{DB}
\acronymused{NoSQL}
\acronymused{DB}
\acronymused{NoSQL}
\acronymused{DB}
\@writefile{lof}{\contentsline {figure}{\numberline {\relax 4.11}{\ignorespaces Logo de MongoDB.}}{17}{figure.4.11}}
\newlabel{logo_mongo}{{\relax 4.11}{17}{Logo de MongoDB}{figure.4.11}{}}
\@writefile{lof}{\contentsline {figure}{\numberline {\relax 4.12}{\ignorespaces Visualizaci\IeC {\'o}n de los datos del objeto \textit  {FV-FR}.}}{17}{figure.4.12}}
\newlabel{datos_robo3t}{{\relax 4.12}{17}{Visualización de los datos del objeto \textit {FV-FR}}{figure.4.12}{}}
\acronymused{DB}
\@writefile{toc}{\contentsline {subsubsection}{\nonumberline Robo3T}{17}{section*.23}}
\acronymused{DB}
\acronymused{DB}
\@writefile{lof}{\contentsline {figure}{\numberline {\relax 4.13}{\ignorespaces Logo de Docker.}}{18}{figure.4.13}}
\newlabel{logo_docker}{{\relax 4.13}{18}{Logo de Docker}{figure.4.13}{}}
\@writefile{toc}{\contentsline {subsection}{\numberline {4.2.7}Docker}{18}{subsection.4.2.7}}
\acronymused{DB}
\@writefile{toc}{\contentsline {section}{\numberline {4.3}Desarrollo de proyecto}{18}{section.4.3}}
\@writefile{toc}{\contentsline {subsection}{\numberline {4.3.1}Metodolog\IeC {\'\i }a}{18}{subsection.4.3.1}}
\citation{mkyong_jsoup}
\@writefile{toc}{\contentsline {subsection}{\numberline {4.3.2}Investigaci\IeC {\'o}n}{19}{subsection.4.3.2}}
\acronymused{API}
\acronymused{API}
\@writefile{toc}{\contentsline {subsection}{\numberline {4.3.3}Desarrollo}{19}{subsection.4.3.3}}
\@writefile{toc}{\contentsline {subsubsection}{\nonumberline Construcci\IeC {\'o}n de proyecto Java}{19}{section*.24}}
\acronymused{POM}
\acronymused{POM}
\acronymused{POM}
\acronymused{API}
\@writefile{lof}{\contentsline {figure}{\numberline {\relax 4.14}{\ignorespaces Organizaci\IeC {\'o}n de las carpetas del proyecto con las clases Java y los ficheros de configuraci\IeC {\'o}n y de propiedades.}}{20}{figure.4.14}}
\newlabel{project_folders}{{\relax 4.14}{20}{Organización de las carpetas del proyecto con las clases Java y los ficheros de configuración y de propiedades}{figure.4.14}{}}
\acronymused{DB}
\@writefile{lof}{\contentsline {figure}{\numberline {\relax 4.15}{\ignorespaces Registros de un panel para un d\IeC {\'\i }a dado.}}{21}{figure.4.15}}
\newlabel{pvoutput}{{\relax 4.15}{21}{Registros de un panel para un día dado}{figure.4.15}{}}
\citation{spring_swagger}
\acronymused{DB}
\acronymused{URL}
\acronymused{URI}
\acronymused{DB}
\@writefile{toc}{\contentsline {subsubsection}{\nonumberline Incluir Swagger}{22}{section*.25}}
\newlabel{swagger}{{4.3.3}{22}{Incluir Swagger}{section*.25}{}}
\acronymused{URI}
\@writefile{toc}{\contentsline {subsubsection}{\nonumberline Desarrollo de servicio web de scraping}{23}{section*.26}}
\acronymused{URL}
\acronymused{URL}
\acronymused{URL}
\acronymused{URL}
\acronymused{HTML}
\acronymused{HTML}
\acronymused{HTML}
\acronymused{DB}
\acronymused{DB}
\citation{docker_mongo}
\@writefile{toc}{\contentsline {subsubsection}{\nonumberline Desarrollo de servicio web de User}{25}{section*.27}}
\acronymused{DB}
\acronymused{DB}
\@writefile{toc}{\contentsline {subsubsection}{\nonumberline Preparaci\IeC {\'o}n de imagen de MongoDB mediante Docker}{25}{section*.28}}
\acronymused{DB}
\acronymused{DB}
\@writefile{lof}{\contentsline {figure}{\numberline {\relax 4.16}{\ignorespaces Visualizaci\IeC {\'o}n de las im\IeC {\'a}genes en el repositorio Docker.}}{26}{figure.4.16}}
\newlabel{docker_images}{{\relax 4.16}{26}{Visualización de las imágenes en el repositorio Docker}{figure.4.16}{}}
\@writefile{toc}{\contentsline {chapter}{\numberline {5}Resultados}{27}{chapter.5}}
\@writefile{lof}{\addvspace {10\p@ }}
\@writefile{lot}{\addvspace {10\p@ }}
\@writefile{lol}{\addvspace {10\p@ }}
\newlabel{resultados}{{5}{27}{Resultados}{chapter.5}{}}
\@writefile{toc}{\contentsline {section}{\numberline {5.1}Resultados}{27}{section.5.1}}
\@writefile{toc}{\contentsline {subsection}{\numberline {5.1.1}Extracci\IeC {\'o}n de informaci\IeC {\'o}n de una web}{27}{subsection.5.1.1}}
\acronymused{DB}
\acronymused{DB}
\acronymused{DB}
\acronymused{DB}
\@writefile{lof}{\contentsline {figure}{\numberline {\relax 5.1}{\ignorespaces Comandos Docker para levantar un contenedor con la instancia de MongoDB.}}{27}{figure.5.1}}
\newlabel{levantar_mongodb}{{\relax 5.1}{27}{Comandos Docker para levantar un contenedor con la instancia de MongoDB}{figure.5.1}{}}
\@writefile{lof}{\contentsline {figure}{\numberline {\relax 5.2}{\ignorespaces Pantalla de Robo3T con la informaci\IeC {\'o}n de la \ac {DB}.}}{28}{figure.5.2}}
\acronymused{DB}
\newlabel{robo3t}{{\relax 5.2}{28}{Pantalla de Robo3T con la información de la \ac {DB}}{figure.5.2}{}}
\acronymused{DB}
\acronymused{DB}
\acronymused{URL}
\@writefile{lof}{\contentsline {figure}{\numberline {\relax 5.3}{\ignorespaces Log de Spring tras levantar la aplicaci\IeC {\'o}n mediante el terminal.}}{29}{figure.5.3}}
\newlabel{levantar_aplicacion}{{\relax 5.3}{29}{Log de Spring tras levantar la aplicación mediante el terminal}{figure.5.3}{}}
\acronymused{DB}
\acronymused{DB}
\@writefile{lof}{\contentsline {figure}{\numberline {\relax 5.4}{\ignorespaces P\IeC {\'a}gina principal del servicio montado en Swagger.}}{30}{figure.5.4}}
\newlabel{index_swagger}{{\relax 5.4}{30}{Página principal del servicio montado en Swagger}{figure.5.4}{}}
\@writefile{lof}{\contentsline {figure}{\numberline {\relax 5.5}{\ignorespaces Captura del servicio de scraping para realizar la extracci\IeC {\'o}n del d\IeC {\'\i }a actual, mediante Swagger. A la derecha la informaci\IeC {\'o}n del log de la aplicaci\IeC {\'o}n.}}{30}{figure.5.5}}
\newlabel{dia_actual}{{\relax 5.5}{30}{Captura del servicio de scraping para realizar la extracción del día actual, mediante Swagger. A la derecha la información del log de la aplicación}{figure.5.5}{}}
\@writefile{lof}{\contentsline {figure}{\numberline {\relax 5.6}{\ignorespaces Captura del servicio de scraping para realizar la extracci\IeC {\'o}n de un d\IeC {\'\i }a espec\IeC {\'\i }fico, en este caso el 15 de Agosto del 2018, mediante Swagger. A la derecha la informaci\IeC {\'o}n del log de la aplicaci\IeC {\'o}n.}}{31}{figure.5.6}}
\newlabel{dia_especifico}{{\relax 5.6}{31}{Captura del servicio de scraping para realizar la extracción de un día específico, en este caso el 15 de Agosto del 2018, mediante Swagger. A la derecha la información del log de la aplicación}{figure.5.6}{}}
\@writefile{lof}{\contentsline {figure}{\numberline {\relax 5.7}{\ignorespaces Captura del servicio de scraping para realizar la extracci\IeC {\'o}n de un intervalo de fechas, en este caso del 01 de Agosto del 2018 al 16 de Agosto del 2018, mediante Swagger. A la derecha la informaci\IeC {\'o}n del log de la aplicaci\IeC {\'o}n.}}{31}{figure.5.7}}
\newlabel{intervalo_fechas}{{\relax 5.7}{31}{Captura del servicio de scraping para realizar la extracción de un intervalo de fechas, en este caso del 01 de Agosto del 2018 al 16 de Agosto del 2018, mediante Swagger. A la derecha la información del log de la aplicación}{figure.5.7}{}}
\@writefile{lof}{\contentsline {figure}{\numberline {\relax 5.8}{\ignorespaces Resultado del log al ejecutar el servicio de extracci\IeC {\'o}n por rango de fecha para m\IeC {\'a}s de cinco meses.}}{32}{figure.5.8}}
\newlabel{resultado_rango}{{\relax 5.8}{32}{Resultado del log al ejecutar el servicio de extracción por rango de fecha para más de cinco meses}{figure.5.8}{}}
\@writefile{lof}{\contentsline {figure}{\numberline {\relax 5.9}{\ignorespaces Visualizaci\IeC {\'o}n tras extraer informaci\IeC {\'o}n para dos usuarios diferentes.}}{32}{figure.5.9}}
\newlabel{resultado_final}{{\relax 5.9}{32}{Visualización tras extraer información para dos usuarios diferentes}{figure.5.9}{}}
\@writefile{toc}{\contentsline {subsection}{\numberline {5.1.2}Posibles tendencias futuras}{32}{subsection.5.1.2}}
\@writefile{toc}{\contentsline {subsubsection}{\nonumberline Dockerizar aplicaci\IeC {\'o}n}{32}{section*.29}}
\acronymused{TFG}
\acronymused{DB}
\@writefile{toc}{\contentsline {subsubsection}{\nonumberline Anal\IeC {\'\i }tica y predicci\IeC {\'o}n de datos}{32}{section*.30}}
\acronymused{DB}
\acronymused{API}
\acronymused{URL}
\acronymused{API}
\acronymused{TFG}
\@writefile{toc}{\contentsline {subsubsection}{\nonumberline Visualizaci\IeC {\'o}n de datos}{33}{section*.31}}
\acronymused{TFG}
\acronymused{DB}
\@writefile{lof}{\contentsline {figure}{\numberline {\relax 5.10}{\ignorespaces Comparaci\IeC {\'o}n de datos y la gr\IeC {\'a}fica con su visualizaci\IeC {\'o}n.}}{34}{figure.5.10}}
\newlabel{datos}{{\relax 5.10}{34}{Comparación de datos y la gráfica con su visualización}{figure.5.10}{}}
\@writefile{lof}{\contentsline {figure}{\numberline {\relax 5.11}{\ignorespaces Visualizaci\IeC {\'o}n tras extraer informaci\IeC {\'o}n para dos usuarios diferentes.}}{34}{figure.5.11}}
\newlabel{tableau_datos}{{\relax 5.11}{34}{Visualización tras extraer información para dos usuarios diferentes}{figure.5.11}{}}
\@writefile{toc}{\contentsline {chapter}{\numberline {6}Conclusiones}{35}{chapter.6}}
\@writefile{lof}{\addvspace {10\p@ }}
\@writefile{lot}{\addvspace {10\p@ }}
\@writefile{lol}{\addvspace {10\p@ }}
\newlabel{conclusiones}{{6}{35}{Conclusiones}{chapter.6}{}}
\acronymused{DB}
\acronymused{TFG}
\acronymused{TFG}
\acronymused{TFG}
\bibdata{bibliografia/bibliografia}
\newacro{IEEE}[IEEE]{Institute of Electrical and Electronics Engineers}
\newacro{TFG}[TFG]{Trabajo Final de Grado}
\newacro{ETL}[ETL]{Extract, Transform and Load}
\newacro{EPS}[EPS]{Escuela Polit\IeC {\'e}cnica Superior}
\newacro{APA}[APA]{American Psychological Association}
\newacro{REE}[REE]{Red El\IeC {\'e}ctrica de Espa\IeC {\~n}aa}
\newacro{UNEF}[UNEF]{Uni\IeC {\'o}n Espa\IeC {\~n}ola Fotovoltaica}
\newacro{DB}[DB]{Base de Datos}
\newacroplural{DB}[DDBB]{Bases de Datos}
\newacro{SQL}[SQL]{Structured Query Language}
\newacro{NoSQL}[NoSQL]{Not Only SQL}
\newacro{API}[API]{Application Programming Interface}
\newacroplural{API}[API]{Application Programming Interfaces}
\newacro{URL}[URL]{Uniform Resource Locator}
\newacro{URI}[URI]{Uniform Resource Identifier}
\newacro{HTML}[HTML]{HyperText Markup Language}
\newacro{XML}[XML]{eXtensible Markup Language}
\newacro{POM}[POM]{Project Object Model}
\newacro{RGPD}[RGPD]{Regulamiento General de Protecci\IeC {\'o}n de Datos}
\newacro{W3C}[W3C]{World Wide Web Consortium}
\@writefile{toc}{\contentsline {chapter}{Lista de Acr\IeC {\'o}nimos}{37}{chapter*.32}}
\bibcite{unef_ree}{{Deloitte Advisory}, 2017}
\bibcite{docker_mongo}{Docker, 2018}
\bibcite{oracle_j8}{L\IeC {\'o}pez, 2015}
\bibcite{mkyong_jsoup}{Mkyong, 2013}
\bibcite{ree_esee}{{Red El{\'e}ctrica de Espa\~{n}a}, 2017}
\bibcite{swagger}{Rodr\IeC {\'\i }guez, 2013}
\bibcite{spring_framework}{{Spring}, 2018}
\bibcite{spring_swagger}{{Spring Framework Guru}, 2017}
\bibcite{w3_ws}{{World Wide Web Consortium}, 2004}
\bibstyle{apalike}
\@writefile{toc}{\contentsline {chapter}{Bibliograf\IeC {\'\i }a}{39}{chapter*.33}}
\@writefile{toc}{\contentsline {chapter}{\numberline {A}Anexo I}{41}{appendix.Alph1}}
\@writefile{lof}{\addvspace {10\p@ }}
\@writefile{lot}{\addvspace {10\p@ }}
\@writefile{lol}{\addvspace {10\p@ }}
\newlabel{anexo_I}{{A}{41}{Anexo I}{appendix.Alph1}{}}
\@writefile{toc}{\contentsline {section}{\numberline {A.1}Clase ScrapController.java}{41}{section.Alph1.1}}
\newlabel{scrapController}{{A.1}{41}{Clase ScrapController.java}{section.Alph1.1}{}}
\@writefile{toc}{\contentsline {section}{\numberline {A.2}Clase UserController.java}{47}{section.Alph1.2}}
\newlabel{userController}{{A.2}{47}{Clase UserController.java}{section.Alph1.2}{}}
\@writefile{toc}{\contentsline {section}{\numberline {A.3}Clase History.java}{48}{section.Alph1.3}}
\newlabel{history}{{A.3}{48}{Clase History.java}{section.Alph1.3}{}}
\@writefile{toc}{\contentsline {section}{\numberline {A.4}Clase HistoryClient.java}{51}{section.Alph1.4}}
\newlabel{historyClient}{{A.4}{51}{Clase HistoryClient.java}{section.Alph1.4}{}}
\@writefile{toc}{\contentsline {section}{\numberline {A.5}Clase User.java}{53}{section.Alph1.5}}
\newlabel{user}{{A.5}{53}{Clase User.java}{section.Alph1.5}{}}
\@writefile{toc}{\contentsline {section}{\numberline {A.6}Clase HistoryMapper.java}{55}{section.Alph1.6}}
\newlabel{historyMapper}{{A.6}{55}{Clase HistoryMapper.java}{section.Alph1.6}{}}
\@writefile{toc}{\contentsline {section}{\numberline {A.7}Interfaz UserRepository.java}{55}{section.Alph1.7}}
\newlabel{userRepository}{{A.7}{55}{Interfaz UserRepository.java}{section.Alph1.7}{}}
\@writefile{toc}{\contentsline {section}{\numberline {A.8}Interfaz UserService.java}{56}{section.Alph1.8}}
\newlabel{userService}{{A.8}{56}{Interfaz UserService.java}{section.Alph1.8}{}}
\@writefile{toc}{\contentsline {section}{\numberline {A.9}Clase UserServiceImpl.java}{57}{section.Alph1.9}}
\newlabel{userServiceImpl}{{A.9}{57}{Clase UserServiceImpl.java}{section.Alph1.9}{}}
\@writefile{toc}{\contentsline {section}{\numberline {A.10}Clase Utilities.java}{59}{section.Alph1.10}}
\newlabel{utilities}{{A.10}{59}{Clase Utilities.java}{section.Alph1.10}{}}
\@writefile{toc}{\contentsline {section}{\numberline {A.11}Clase Application.java}{60}{section.Alph1.11}}
\newlabel{application}{{A.11}{60}{Clase Application.java}{section.Alph1.11}{}}
\@writefile{toc}{\contentsline {section}{\numberline {A.12}Clase SwaggerConfig.java}{60}{section.Alph1.12}}
\newlabel{swaggerConfig}{{A.12}{60}{Clase SwaggerConfig.java}{section.Alph1.12}{}}
\@writefile{toc}{\contentsline {section}{\numberline {A.13}Resources application.properties}{61}{section.Alph1.13}}
\newlabel{appProperties}{{A.13}{61}{Resources application.properties}{section.Alph1.13}{}}
\@writefile{toc}{\contentsline {section}{\numberline {A.14}Maven POM}{62}{section.Alph1.14}}
\newlabel{pom}{{A.14}{62}{Maven POM}{section.Alph1.14}{}}
\global\csname @altsecnumformattrue\endcsname
\global\@namedef{scr@dte@chapter@lastmaxnumwidth}{16.19382pt}
\global\@namedef{scr@dte@section@lastmaxnumwidth}{29.62581pt}
\global\@namedef{scr@dte@subsection@lastmaxnumwidth}{29.92998pt}
